-------------------------------------------------------------------------------
Test set: com.pongpipat.week5.SelectionsortAppTest
-------------------------------------------------------------------------------
Tests run: 8, Failures: 0, Errors: 0, Skipped: 0, Time elapsed: 0.003 s - in com.pongpipat.week5.SelectionsortAppTest
